group;bytesperproc;nodes;procs;ion;rep;time
bench;134217728.0;16;128;0;0;45.53
bench;134217728.0;16;128;0;1;40.05
bench;134217728.0;16;128;0;2;38.64
bench;134217728.0;16;128;0;3;65.57
app;134217728.0;16;128;0;4;71.46
bench;134217728.0;16;128;0;5;73.42
app;134217728.0;16;128;0;6;62.71
app;134217728.0;16;128;0;7;34.22
app;134217728.0;16;128;0;8;65.9
app;134217728.0;16;128;0;9;51.72
bench;134217728.0;16;128;1;0;89.17
app;134217728.0;16;128;1;1;91.0
bench;134217728.0;16;128;1;2;91.05
bench;134217728.0;16;128;1;3;75.88
app;134217728.0;16;128;1;4;59.53
bench;134217728.0;16;128;1;5;89.35
app;134217728.0;16;128;1;6;51.03
bench;134217728.0;16;128;1;7;62.86
app;134217728.0;16;128;1;8;79.55
app;134217728.0;16;128;1;9;50.04
bench;134217728.0;16;128;2;0;46.33
app;134217728.0;16;128;2;1;35.5
app;134217728.0;16;128;2;2;64.97
bench;134217728.0;16;128;2;3;58.44
app;134217728.0;16;128;2;4;43.62
app;134217728.0;16;128;2;5;66.36
bench;134217728.0;16;128;2;6;66.62
bench;134217728.0;16;128;2;7;37.08
bench;134217728.0;16;128;2;8;35.36
app;134217728.0;16;128;2;9;37.24
bench;134217728.0;16;128;4;0;57.19
app;134217728.0;16;128;4;1;33.71
bench;134217728.0;16;128;4;2;31.98
app;134217728.0;16;128;4;3;47.62
app;134217728.0;16;128;4;4;45.09
app;134217728.0;16;128;4;5;56.18
bench;134217728.0;16;128;4;6;33.42
bench;134217728.0;16;128;4;7;33.0
app;134217728.0;16;128;4;8;56.11
bench;134217728.0;16;128;4;9;56.45
app;134217728.0;16;128;8;0;71.57
bench;134217728.0;16;128;8;1;63.52
bench;134217728.0;16;128;8;2;61.62
bench;134217728.0;16;128;8;3;45.61
bench;134217728.0;16;128;8;4;69.01
app;134217728.0;16;128;8;5;48.19
app;134217728.0;16;128;8;6;48.56
app;134217728.0;16;128;8;7;38.53
bench;134217728.0;16;128;8;8;41.58
app;134217728.0;16;128;8;9;67.98
