IOR-3.3.0+dev: MPI Coordinated Test of Parallel I/O
Began               : Tue Oct  6 23:11:39 2020
Command line        : ior -a POSIX -w -o /mnt/gekko/POSIX-L_64nodes_512procs_1ionodes_1 -b 64m -F -t 4m
Machine             : Linux gros-10
TestID              : 0
StartTime           : Tue Oct  6 23:11:39 2020
Path                : /mnt/gekko
FS                  : 1.1 TiB   Used FS: 5.0%   Inodes: 0.0 Mi   Used Inodes: -nan%

Options: 
api                 : POSIX
apiVersion          : 
test filename       : /mnt/gekko/POSIX-L_64nodes_512procs_1ionodes_1
access              : file-per-process
type                : independent
segments            : 1
ordering in a file  : sequential
ordering inter file : no tasks offsets
nodes               : 64
tasks               : 512
clients per node    : 8
repetitions         : 1
xfersize            : 4 MiB
blocksize           : 64 MiB
aggregate filesize  : 32 GiB

Results: 

access    bw(MiB/s)  IOPS       Latency(s)  block(KiB) xfer(KiB)  open(s)    wr/rd(s)   close(s)   total(s)   iter
------    ---------  ----       ----------  ---------- ---------  --------   --------   --------   --------   ----
write     208.86     52.22      9.53        65536      4096       0.020951   156.88     16.48      156.89     0   
remove    -          -          -           -          -          -          -          -          2.68       0   
Max Write: 208.86 MiB/sec (219.00 MB/sec)

Summary of all tests:
Operation   Max(MiB)   Min(MiB)  Mean(MiB)     StdDev   Max(OPs)   Min(OPs)  Mean(OPs)     StdDev    Mean(s) Stonewall(s) Stonewall(MiB) Test# #Tasks tPN reps fPP reord reordoff reordrand seed segcnt   blksiz    xsize aggs(MiB)   API RefNum
write         208.86     208.86     208.86       0.00      52.21      52.21      52.21       0.00  156.89268         NA            NA     0    512   8    1   1     0        1         0    0      1 67108864  4194304   32768.0 POSIX      0
Finished            : Tue Oct  6 23:14:19 2020
