IOR-3.3.0+dev: MPI Coordinated Test of Parallel I/O
Began               : Wed Oct  7 02:37:24 2020
Command line        : ior -a POSIX -w -o /mnt/gekko/POSIX-L_64nodes_512procs_1ionodes_9 -b 64m -F -t 4m
Machine             : Linux gros-10
TestID              : 0
StartTime           : Wed Oct  7 02:37:24 2020
Path                : /mnt/gekko
FS                  : 1.1 TiB   Used FS: 5.0%   Inodes: 0.0 Mi   Used Inodes: -nan%

Options: 
api                 : POSIX
apiVersion          : 
test filename       : /mnt/gekko/POSIX-L_64nodes_512procs_1ionodes_9
access              : file-per-process
type                : independent
segments            : 1
ordering in a file  : sequential
ordering inter file : no tasks offsets
nodes               : 64
tasks               : 512
clients per node    : 8
repetitions         : 1
xfersize            : 4 MiB
blocksize           : 64 MiB
aggregate filesize  : 32 GiB

Results: 

access    bw(MiB/s)  IOPS       Latency(s)  block(KiB) xfer(KiB)  open(s)    wr/rd(s)   close(s)   total(s)   iter
------    ---------  ----       ----------  ---------- ---------  --------   --------   --------   --------   ----
write     214.42     53.61      9.22        65536      4096       0.021093   152.81     8.73       152.82     0   
remove    -          -          -           -          -          -          -          -          2.52       0   
Max Write: 214.42 MiB/sec (224.84 MB/sec)

Summary of all tests:
Operation   Max(MiB)   Min(MiB)  Mean(MiB)     StdDev   Max(OPs)   Min(OPs)  Mean(OPs)     StdDev    Mean(s) Stonewall(s) Stonewall(MiB) Test# #Tasks tPN reps fPP reord reordoff reordrand seed segcnt   blksiz    xsize aggs(MiB)   API RefNum
write         214.42     214.42     214.42       0.00      53.61      53.61      53.61       0.00  152.82006         NA            NA     0    512   8    1   1     0        1         0    0      1 67108864  4194304   32768.0 POSIX      0
Finished            : Wed Oct  7 02:39:59 2020
