IOR-3.3.0+dev: MPI Coordinated Test of Parallel I/O
Began               : Wed Oct  7 00:55:13 2020
Command line        : ior -a POSIX -w -o /mnt/gekko/POSIX-L_64nodes_512procs_8ionodes_9 -b 64m -F -t 4m
Machine             : Linux gros-106
TestID              : 0
StartTime           : Wed Oct  7 00:55:13 2020
Path                : /mnt/gekko
FS                  : 8.6 TiB   Used FS: 5.0%   Inodes: 0.0 Mi   Used Inodes: -nan%

Options: 
api                 : POSIX
apiVersion          : 
test filename       : /mnt/gekko/POSIX-L_64nodes_512procs_8ionodes_9
access              : file-per-process
type                : independent
segments            : 1
ordering in a file  : sequential
ordering inter file : no tasks offsets
nodes               : 64
tasks               : 512
clients per node    : 8
repetitions         : 1
xfersize            : 4 MiB
blocksize           : 64 MiB
aggregate filesize  : 32 GiB

Results: 

access    bw(MiB/s)  IOPS       Latency(s)  block(KiB) xfer(KiB)  open(s)    wr/rd(s)   close(s)   total(s)   iter
------    ---------  ----       ----------  ---------- ---------  --------   --------   --------   --------   ----
write     243.13     60.79      7.78        65536      4096       1.10       134.77     75.95      134.78     0   
remove    -          -          -           -          -          -          -          -          17.05      0   
Max Write: 243.13 MiB/sec (254.94 MB/sec)

Summary of all tests:
Operation   Max(MiB)   Min(MiB)  Mean(MiB)     StdDev   Max(OPs)   Min(OPs)  Mean(OPs)     StdDev    Mean(s) Stonewall(s) Stonewall(MiB) Test# #Tasks tPN reps fPP reord reordoff reordrand seed segcnt   blksiz    xsize aggs(MiB)   API RefNum
write         243.13     243.13     243.13       0.00      60.78      60.78      60.78       0.00  134.77737         NA            NA     0    512   8    1   1     0        1         0    0      1 67108864  4194304   32768.0 POSIX      0
Finished            : Wed Oct  7 00:57:45 2020
