IOR-3.3.0+dev: MPI Coordinated Test of Parallel I/O
Began               : Tue Oct  6 23:55:16 2020
Command line        : ior -a POSIX -w -o /mnt/lustre/POSIX-L_64nodes_512procs_0ionodes_6 -b 64m -F -t 4m
Machine             : Linux gros-1
TestID              : 0
StartTime           : Tue Oct  6 23:55:16 2020
Path                : /mnt/lustre
FS                  : 1.1 TiB   Used FS: 0.0%   Inodes: 16.4 Mi   Used Inodes: 0.0%

Options: 
api                 : POSIX
apiVersion          : 
test filename       : /mnt/lustre/POSIX-L_64nodes_512procs_0ionodes_6
access              : file-per-process
type                : independent
segments            : 1
ordering in a file  : sequential
ordering inter file : no tasks offsets
nodes               : 64
tasks               : 512
clients per node    : 8
repetitions         : 1
xfersize            : 4 MiB
blocksize           : 64 MiB
aggregate filesize  : 32 GiB

Results: 

access    bw(MiB/s)  IOPS       Latency(s)  block(KiB) xfer(KiB)  open(s)    wr/rd(s)   close(s)   total(s)   iter
------    ---------  ----       ----------  ---------- ---------  --------   --------   --------   --------   ----
write     231.93     57.98      0.030847    65536      4096       0.058482   141.28     141.25     141.29     0   
remove    -          -          -           -          -          -          -          -          23.39      0   
Max Write: 231.93 MiB/sec (243.19 MB/sec)

Summary of all tests:
Operation   Max(MiB)   Min(MiB)  Mean(MiB)     StdDev   Max(OPs)   Min(OPs)  Mean(OPs)     StdDev    Mean(s) Stonewall(s) Stonewall(MiB) Test# #Tasks tPN reps fPP reord reordoff reordrand seed segcnt   blksiz    xsize aggs(MiB)   API RefNum
write         231.93     231.93     231.93       0.00      57.98      57.98      57.98       0.00  141.28556         NA            NA     0    512   8    1   1     0        1         0    0      1 67108864  4194304   32768.0 POSIX      0
Finished            : Tue Oct  6 23:58:01 2020
