IOR-3.3.0+dev: MPI Coordinated Test of Parallel I/O
Began               : Tue Oct  6 23:40:39 2020
Command line        : ior -a POSIX -w -o /mnt/lustre/POSIX-L_64nodes_512procs_0ionodes_0 -b 64m -F -t 4m
Machine             : Linux gros-1
TestID              : 0
StartTime           : Tue Oct  6 23:40:39 2020
Path                : /mnt/lustre
FS                  : 1.1 TiB   Used FS: 0.0%   Inodes: 16.4 Mi   Used Inodes: 0.0%

Options: 
api                 : POSIX
apiVersion          : 
test filename       : /mnt/lustre/POSIX-L_64nodes_512procs_0ionodes_0
access              : file-per-process
type                : independent
segments            : 1
ordering in a file  : sequential
ordering inter file : no tasks offsets
nodes               : 64
tasks               : 512
clients per node    : 8
repetitions         : 1
xfersize            : 4 MiB
blocksize           : 64 MiB
aggregate filesize  : 32 GiB

Results: 

access    bw(MiB/s)  IOPS       Latency(s)  block(KiB) xfer(KiB)  open(s)    wr/rd(s)   close(s)   total(s)   iter
------    ---------  ----       ----------  ---------- ---------  --------   --------   --------   --------   ----
write     265.02     66.26      1.10        65536      4096       0.012937   123.64     106.10     123.64     0   
remove    -          -          -           -          -          -          -          -          21.33      0   
Max Write: 265.02 MiB/sec (277.90 MB/sec)

Summary of all tests:
Operation   Max(MiB)   Min(MiB)  Mean(MiB)     StdDev   Max(OPs)   Min(OPs)  Mean(OPs)     StdDev    Mean(s) Stonewall(s) Stonewall(MiB) Test# #Tasks tPN reps fPP reord reordoff reordrand seed segcnt   blksiz    xsize aggs(MiB)   API RefNum
write         265.02     265.02     265.02       0.00      66.26      66.26      66.26       0.00  123.64164         NA            NA     0    512   8    1   1     0        1         0    0      1 67108864  4194304   32768.0 POSIX      0
Finished            : Tue Oct  6 23:43:04 2020
