IOR-3.3.0+dev: MPI Coordinated Test of Parallel I/O
Began               : Wed Oct  7 01:19:53 2020
Command line        : ior -a POSIX -w -o /mnt/gekko/POSIX-L_64nodes_512procs_4ionodes_5 -b 64m -F -t 4m
Machine             : Linux gros-102
TestID              : 0
StartTime           : Wed Oct  7 01:19:53 2020
Path                : /mnt/gekko
FS                  : 4.3 TiB   Used FS: 5.0%   Inodes: 0.0 Mi   Used Inodes: -nan%

Options: 
api                 : POSIX
apiVersion          : 
test filename       : /mnt/gekko/POSIX-L_64nodes_512procs_4ionodes_5
access              : file-per-process
type                : independent
segments            : 1
ordering in a file  : sequential
ordering inter file : no tasks offsets
nodes               : 64
tasks               : 512
clients per node    : 8
repetitions         : 1
xfersize            : 4 MiB
blocksize           : 64 MiB
aggregate filesize  : 32 GiB

Results: 

access    bw(MiB/s)  IOPS       Latency(s)  block(KiB) xfer(KiB)  open(s)    wr/rd(s)   close(s)   total(s)   iter
------    ---------  ----       ----------  ---------- ---------  --------   --------   --------   --------   ----
write     298.90     74.73      6.11        65536      4096       1.08       109.61     25.74      109.63     0   
remove    -          -          -           -          -          -          -          -          3.00       0   
Max Write: 298.90 MiB/sec (313.42 MB/sec)

Summary of all tests:
Operation   Max(MiB)   Min(MiB)  Mean(MiB)     StdDev   Max(OPs)   Min(OPs)  Mean(OPs)     StdDev    Mean(s) Stonewall(s) Stonewall(MiB) Test# #Tasks tPN reps fPP reord reordoff reordrand seed segcnt   blksiz    xsize aggs(MiB)   API RefNum
write         298.90     298.90     298.90       0.00      74.72      74.72      74.72       0.00  109.62917         NA            NA     0    512   8    1   1     0        1         0    0      1 67108864  4194304   32768.0 POSIX      0
Finished            : Wed Oct  7 01:21:46 2020
