IOR-3.3.0+dev: MPI Coordinated Test of Parallel I/O
Began               : Tue Oct  6 23:01:20 2020
Command line        : ior -a POSIX -w -o /mnt/gekko/POSIX-S_16nodes_128procs_1ionodes_7 -b 128m -t 2m
Machine             : Linux gros-10
TestID              : 0
StartTime           : Tue Oct  6 23:01:20 2020
Path                : /mnt/gekko
FS                  : 1.1 TiB   Used FS: 5.0%   Inodes: 0.0 Mi   Used Inodes: -nan%

Options: 
api                 : POSIX
apiVersion          : 
test filename       : /mnt/gekko/POSIX-S_16nodes_128procs_1ionodes_7
access              : single-shared-file
type                : independent
segments            : 1
ordering in a file  : sequential
ordering inter file : no tasks offsets
nodes               : 16
tasks               : 128
clients per node    : 8
repetitions         : 1
xfersize            : 2 MiB
blocksize           : 128 MiB
aggregate filesize  : 16 GiB

Results: 

access    bw(MiB/s)  IOPS       Latency(s)  block(KiB) xfer(KiB)  open(s)    wr/rd(s)   close(s)   total(s)   iter
------    ---------  ----       ----------  ---------- ---------  --------   --------   --------   --------   ----
write     260.65     130.36     0.947477    131072     2048.00    0.017271   62.84      2.31       62.86      0   
remove    -          -          -           -          -          -          -          -          4.45       0   
Max Write: 260.65 MiB/sec (273.31 MB/sec)

Summary of all tests:
Operation   Max(MiB)   Min(MiB)  Mean(MiB)     StdDev   Max(OPs)   Min(OPs)  Mean(OPs)     StdDev    Mean(s) Stonewall(s) Stonewall(MiB) Test# #Tasks tPN reps fPP reord reordoff reordrand seed segcnt   blksiz    xsize aggs(MiB)   API RefNum
write         260.65     260.65     260.65       0.00     130.32     130.32     130.32       0.00   62.85915         NA            NA     0    128   8    1   0     0        1         0    0      1 134217728  2097152   16384.0 POSIX      0
Finished            : Tue Oct  6 23:02:28 2020
