IOR-3.3.0+dev: MPI Coordinated Test of Parallel I/O
Began               : Wed Oct  7 01:16:47 2020
Command line        : ior -a POSIX -w -o /mnt/gekko/POSIX-S_16nodes_128procs_8ionodes_4 -b 128m -t 2m
Machine             : Linux gros-106
TestID              : 0
StartTime           : Wed Oct  7 01:16:47 2020
Path                : /mnt/gekko
FS                  : 8.6 TiB   Used FS: 5.0%   Inodes: 0.0 Mi   Used Inodes: -nan%

Options: 
api                 : POSIX
apiVersion          : 
test filename       : /mnt/gekko/POSIX-S_16nodes_128procs_8ionodes_4
access              : single-shared-file
type                : independent
segments            : 1
ordering in a file  : sequential
ordering inter file : no tasks offsets
nodes               : 16
tasks               : 128
clients per node    : 8
repetitions         : 1
xfersize            : 2 MiB
blocksize           : 128 MiB
aggregate filesize  : 16 GiB

Results: 

access    bw(MiB/s)  IOPS       Latency(s)  block(KiB) xfer(KiB)  open(s)    wr/rd(s)   close(s)   total(s)   iter
------    ---------  ----       ----------  ---------- ---------  --------   --------   --------   --------   ----
write     237.43     118.73     0.939139    131072     2048.00    0.031619   69.00      35.64      69.01      0   
remove    -          -          -           -          -          -          -          -          7.83       0   
Max Write: 237.43 MiB/sec (248.96 MB/sec)

Summary of all tests:
Operation   Max(MiB)   Min(MiB)  Mean(MiB)     StdDev   Max(OPs)   Min(OPs)  Mean(OPs)     StdDev    Mean(s) Stonewall(s) Stonewall(MiB) Test# #Tasks tPN reps fPP reord reordoff reordrand seed segcnt   blksiz    xsize aggs(MiB)   API RefNum
write         237.43     237.43     237.43       0.00     118.71     118.71     118.71       0.00   69.00566         NA            NA     0    128   8    1   0     0        1         0    0      1 134217728  2097152   16384.0 POSIX      0
Finished            : Wed Oct  7 01:18:03 2020
