IOR-3.3.0+dev: MPI Coordinated Test of Parallel I/O
Began               : Tue Oct  6 23:54:01 2020
Command line        : ior -a POSIX -w -o /mnt/gekko/POSIX-S_16nodes_128procs_8ionodes_3 -b 128m -t 2m
Machine             : Linux gros-106
TestID              : 0
StartTime           : Tue Oct  6 23:54:01 2020
Path                : /mnt/gekko
FS                  : 8.6 TiB   Used FS: 5.1%   Inodes: 0.0 Mi   Used Inodes: -nan%

Options: 
api                 : POSIX
apiVersion          : 
test filename       : /mnt/gekko/POSIX-S_16nodes_128procs_8ionodes_3
access              : single-shared-file
type                : independent
segments            : 1
ordering in a file  : sequential
ordering inter file : no tasks offsets
nodes               : 16
tasks               : 128
clients per node    : 8
repetitions         : 1
xfersize            : 2 MiB
blocksize           : 128 MiB
aggregate filesize  : 16 GiB

Results: 

access    bw(MiB/s)  IOPS       Latency(s)  block(KiB) xfer(KiB)  open(s)    wr/rd(s)   close(s)   total(s)   iter
------    ---------  ----       ----------  ---------- ---------  --------   --------   --------   --------   ----
write     359.22     179.66     0.522302    131072     2048.00    0.040092   45.60      23.83      45.61      0   
remove    -          -          -           -          -          -          -          -          5.26       0   
Max Write: 359.22 MiB/sec (376.67 MB/sec)

Summary of all tests:
Operation   Max(MiB)   Min(MiB)  Mean(MiB)     StdDev   Max(OPs)   Min(OPs)  Mean(OPs)     StdDev    Mean(s) Stonewall(s) Stonewall(MiB) Test# #Tasks tPN reps fPP reord reordoff reordrand seed segcnt   blksiz    xsize aggs(MiB)   API RefNum
write         359.22     359.22     359.22       0.00     179.61     179.61     179.61       0.00   45.61008         NA            NA     0    128   8    1   0     0        1         0    0      1 134217728  2097152   16384.0 POSIX      0
Finished            : Tue Oct  6 23:54:52 2020
