IOR-3.3.0+dev: MPI Coordinated Test of Parallel I/O
Began               : Wed Oct  7 02:50:25 2020
Command line        : ior -a POSIX -w -o /mnt/lustre/POSIX-S_16nodes_128procs_0ionodes_7 -b 128m -t 2m
Machine             : Linux gros-1
TestID              : 0
StartTime           : Wed Oct  7 02:50:25 2020
Path                : /mnt/lustre
FS                  : 1.1 TiB   Used FS: 0.0%   Inodes: 16.4 Mi   Used Inodes: 0.0%

Options: 
api                 : POSIX
apiVersion          : 
test filename       : /mnt/lustre/POSIX-S_16nodes_128procs_0ionodes_7
access              : single-shared-file
type                : independent
segments            : 1
ordering in a file  : sequential
ordering inter file : no tasks offsets
nodes               : 16
tasks               : 128
clients per node    : 8
repetitions         : 1
xfersize            : 2 MiB
blocksize           : 128 MiB
aggregate filesize  : 16 GiB

Results: 

access    bw(MiB/s)  IOPS       Latency(s)  block(KiB) xfer(KiB)  open(s)    wr/rd(s)   close(s)   total(s)   iter
------    ---------  ----       ----------  ---------- ---------  --------   --------   --------   --------   ----
write     478.74     239.38     0.004484    131072     2048.00    0.003470   34.22      34.00      34.22      0   
remove    -          -          -           -          -          -          -          -          8.31       0   
Max Write: 478.74 MiB/sec (501.99 MB/sec)

Summary of all tests:
Operation   Max(MiB)   Min(MiB)  Mean(MiB)     StdDev   Max(OPs)   Min(OPs)  Mean(OPs)     StdDev    Mean(s) Stonewall(s) Stonewall(MiB) Test# #Tasks tPN reps fPP reord reordoff reordrand seed segcnt   blksiz    xsize aggs(MiB)   API RefNum
write         478.74     478.74     478.74       0.00     239.37     239.37     239.37       0.00   34.22321         NA            NA     0    128   8    1   0     0        1         0    0      1 134217728  2097152   16384.0 POSIX      0
Finished            : Wed Oct  7 02:51:07 2020
