ion,phase,band
0,0,205.7
0,1,217.21
0,2,218.41
0,3,223.18
0,4,210.4
0,5,228.1
0,6,222.16
0,7,226.85
0,0,208.39
0,1,214.03
0,2,215.05
0,3,210.48
0,4,224.24
0,5,221.65
0,6,217.23
0,7,220.46
0,0,219.08
0,1,213.72
0,2,216.32
0,3,217.55
0,4,220.73
0,5,218.42
0,6,215.2
0,7,219.88
0,0,219.36
0,1,200.53
0,2,223.49
0,3,216.75
0,4,224.21
0,5,222.7
0,6,221.98
0,7,220.17
0,0,213.24
0,1,217.85
0,2,223.59
0,3,225.18
0,4,223.4
0,5,222.56
0,6,218.44
0,7,226.35
1,0,519.24
1,1,707.24
1,2,731.07
1,3,752.12
1,4,802.23
1,5,688.44
1,6,743.54
1,7,753.46
1,0,568.23
1,1,654.93
1,2,768.55
1,3,1195
1,4,873.91
1,5,765.1
1,6,957.18
1,7,897.06
1,0,512.85
1,1,785.78
1,2,830.24
1,3,703.68
1,4,719.47
1,5,685.95
1,6,812.26
1,7,908.91
1,0,563.29
1,1,734.64
1,2,723.85
1,3,1035.66
1,4,828.46
1,5,689.1
1,6,717.5
1,7,737.83
1,0,561.93
1,1,665.94
1,2,788.17
1,3,720.84
1,4,697.72
1,5,986.97
1,6,726.3
1,7,811.68
2,0,356.44
2,1,359.29
2,2,307.19
2,3,253.99
2,4,217.91
2,5,252.59
2,6,258.79
2,7,367.73
2,0,265.92
2,1,322.8
2,2,245.52
2,3,355.63
2,4,305.06
2,5,413.72
2,6,313.72
2,7,290.56
2,0,263.32
2,1,404.95
2,2,333.68
2,3,373.31
2,4,273.91
2,5,426.19
2,6,387.29
2,7,312.47
2,0,354.49
2,1,232.81
2,2,260.59
2,3,358.91
2,4,239.58
2,5,361.93
2,6,344.75
2,7,474.38
2,0,264.32
2,1,461.41
2,2,456.98
2,3,238.84
2,4,306.36
2,5,337.29
2,6,303.42
2,7,371.88
4,0,293.81
4,1,231.21
4,2,243.41
4,3,217.06
4,4,238.16
4,5,246.25
4,6,266.29
4,7,258.45
4,0,231.43
4,1,235.43
4,2,228.74
4,3,255.1
4,4,259.7
4,5,269.52
4,6,240.73
4,7,274.72
4,0,281.44
4,1,264.71
4,2,279.71
4,3,275.31
4,4,260.01
4,5,245.46
4,6,288.91
4,7,262.53
4,0,250.66
4,1,286.61
4,2,289.06
4,3,284.29
4,4,278.97
4,5,273.62
4,6,254.76
4,7,253.37
4,0,278.38
4,1,274.98
4,2,301.74
4,3,254.22
4,4,278.16
4,5,239.01
4,6,287.28
4,7,272.09
8,0,248.54
8,1,235.5
8,2,242.37
8,3,253
8,4,232.68
8,5,221.19
8,6,239.71
8,7,231.46
8,0,207.22
8,1,216.8
8,2,259.46
8,3,252.26
8,4,226.1
8,5,222.26
8,6,234.45
8,7,227.27
8,0,227.3
8,1,242.28
8,2,234.75
8,3,222.94
8,4,237.78
8,5,232.87
8,6,243.94
8,7,217.04
8,0,247.56
8,1,238.05
8,2,251.41
8,3,238.84
8,4,241.11
8,5,238.59
8,6,250.48
8,7,230.13
8,0,243.08
8,1,237.78
8,2,240.63
8,3,235.08
8,4,227.06
8,5,236.97
8,6,221.84
8,7,242.91
