IOR-3.3.0+dev: MPI Coordinated Test of Parallel I/O
Began               : Thu Oct 15 22:04:36 2020
Command line        : ior -a POSIX -w -b 250m -t 25m -F -o /mnt/lustre/ior-for-HACClarge_8nodes_64procs_0ionodes_2
Machine             : Linux gros-1
TestID              : 0
StartTime           : Thu Oct 15 22:04:36 2020
Path                : /mnt/lustre
FS                  : 1.1 TiB   Used FS: 1.2%   Inodes: 16.4 Mi   Used Inodes: 0.0%

Options: 
api                 : POSIX
apiVersion          : 
test filename       : /mnt/lustre/ior-for-HACClarge_8nodes_64procs_0ionodes_2
access              : file-per-process
type                : independent
segments            : 1
ordering in a file  : sequential
ordering inter file : no tasks offsets
nodes               : 8
tasks               : 64
clients per node    : 8
repetitions         : 1
xfersize            : 25 MiB
blocksize           : 250 MiB
aggregate filesize  : 15.62 GiB

Results: 

access    bw(MiB/s)  IOPS       Latency(s)  block(KiB) xfer(KiB)  open(s)    wr/rd(s)   close(s)   total(s)   iter
------    ---------  ----       ----------  ---------- ---------  --------   --------   --------   --------   ----
write     361.57     14.46      0.038136    256000     25600      0.004472   44.25      43.89      44.25      0   
remove    -          -          -           -          -          -          -          -          4.40       0   
Max Write: 361.57 MiB/sec (379.14 MB/sec)

Summary of all tests:
Operation   Max(MiB)   Min(MiB)  Mean(MiB)     StdDev   Max(OPs)   Min(OPs)  Mean(OPs)     StdDev    Mean(s) Stonewall(s) Stonewall(MiB) Test# #Tasks tPN reps fPP reord reordoff reordrand seed segcnt   blksiz    xsize aggs(MiB)   API RefNum
write         361.57     361.57     361.57       0.00      14.46      14.46      14.46       0.00   44.25128         NA            NA     0     64   8    1   1     0        1         0    0      1 262144000 26214400   16000.0 POSIX      0
Finished            : Thu Oct 15 22:05:25 2020
