IOR-3.3.0+dev: MPI Coordinated Test of Parallel I/O
Began               : Thu Oct 15 22:21:40 2020
Command line        : ior -a POSIX -w -b 250m -t 25m -F -o /mnt/gekko/ior-for-HACClarge_8nodes_64procs_8ionodes_0
Machine             : Linux gros-106
TestID              : 0
StartTime           : Thu Oct 15 22:21:40 2020
Path                : /mnt/gekko
FS                  : 8.6 TiB   Used FS: 5.0%   Inodes: 0.0 Mi   Used Inodes: -nan%

Options: 
api                 : POSIX
apiVersion          : 
test filename       : /mnt/gekko/ior-for-HACClarge_8nodes_64procs_8ionodes_0
access              : file-per-process
type                : independent
segments            : 1
ordering in a file  : sequential
ordering inter file : no tasks offsets
nodes               : 8
tasks               : 64
clients per node    : 8
repetitions         : 1
xfersize            : 25 MiB
blocksize           : 250 MiB
aggregate filesize  : 15.62 GiB

Results: 

access    bw(MiB/s)  IOPS       Latency(s)  block(KiB) xfer(KiB)  open(s)    wr/rd(s)   close(s)   total(s)   iter
------    ---------  ----       ----------  ---------- ---------  --------   --------   --------   --------   ----
write     339.06     13.56      3.62        256000     25600      0.013690   47.19      30.40      47.19      0   
remove    -          -          -           -          -          -          -          -          5.54       0   
Max Write: 339.06 MiB/sec (355.53 MB/sec)

Summary of all tests:
Operation   Max(MiB)   Min(MiB)  Mean(MiB)     StdDev   Max(OPs)   Min(OPs)  Mean(OPs)     StdDev    Mean(s) Stonewall(s) Stonewall(MiB) Test# #Tasks tPN reps fPP reord reordoff reordrand seed segcnt   blksiz    xsize aggs(MiB)   API RefNum
write         339.06     339.06     339.06       0.00      13.56      13.56      13.56       0.00   47.18994         NA            NA     0     64   8    1   1     0        1         0    0      1 262144000 26214400   16000.0 POSIX      0
Finished            : Thu Oct 15 22:22:33 2020
