IOR-3.3.0+dev: MPI Coordinated Test of Parallel I/O
Began               : Thu Oct 15 22:27:42 2020
Command line        : ior -a POSIX -w -b 250m -t 25m -F -o /mnt/gekko/ior-for-HACClarge_8nodes_64procs_8ionodes_3
Machine             : Linux gros-106
TestID              : 0
StartTime           : Thu Oct 15 22:27:42 2020
Path                : /mnt/gekko
FS                  : 8.6 TiB   Used FS: 5.0%   Inodes: 0.0 Mi   Used Inodes: -nan%

Options: 
api                 : POSIX
apiVersion          : 
test filename       : /mnt/gekko/ior-for-HACClarge_8nodes_64procs_8ionodes_3
access              : file-per-process
type                : independent
segments            : 1
ordering in a file  : sequential
ordering inter file : no tasks offsets
nodes               : 8
tasks               : 64
clients per node    : 8
repetitions         : 1
xfersize            : 25 MiB
blocksize           : 250 MiB
aggregate filesize  : 15.62 GiB

Results: 

access    bw(MiB/s)  IOPS       Latency(s)  block(KiB) xfer(KiB)  open(s)    wr/rd(s)   close(s)   total(s)   iter
------    ---------  ----       ----------  ---------- ---------  --------   --------   --------   --------   ----
write     396.40     15.86      2.48        256000     25600      0.025342   40.36      18.62      40.36      0   
remove    -          -          -           -          -          -          -          -          7.72       0   
Max Write: 396.40 MiB/sec (415.65 MB/sec)

Summary of all tests:
Operation   Max(MiB)   Min(MiB)  Mean(MiB)     StdDev   Max(OPs)   Min(OPs)  Mean(OPs)     StdDev    Mean(s) Stonewall(s) Stonewall(MiB) Test# #Tasks tPN reps fPP reord reordoff reordrand seed segcnt   blksiz    xsize aggs(MiB)   API RefNum
write         396.40     396.40     396.40       0.00      15.86      15.86      15.86       0.00   40.36375         NA            NA     0     64   8    1   1     0        1         0    0      1 262144000 26214400   16000.0 POSIX      0
Finished            : Thu Oct 15 22:28:30 2020
