IOR-3.3.0+dev: MPI Coordinated Test of Parallel I/O
Began               : Tue Oct  6 20:48:17 2020
Command line        : ior -a POSIX -w -b 30m -t 3m -s 1 -F -o /mnt/gekko/ior-for-HACC_8nodes_64procs_1ionodes_1
Machine             : Linux gros-10
TestID              : 0
StartTime           : Tue Oct  6 20:48:17 2020
Path                : /mnt/gekko
FS                  : 1.1 TiB   Used FS: 5.0%   Inodes: 0.0 Mi   Used Inodes: -nan%

Options: 
api                 : POSIX
apiVersion          : 
test filename       : /mnt/gekko/ior-for-HACC_8nodes_64procs_1ionodes_1
access              : file-per-process
type                : independent
segments            : 1
ordering in a file  : sequential
ordering inter file : no tasks offsets
nodes               : 8
tasks               : 64
clients per node    : 8
repetitions         : 1
xfersize            : 3 MiB
blocksize           : 30 MiB
aggregate filesize  : 1.88 GiB

Results: 

access    bw(MiB/s)  IOPS       Latency(s)  block(KiB) xfer(KiB)  open(s)    wr/rd(s)   close(s)   total(s)   iter
------    ---------  ----       ----------  ---------- ---------  --------   --------   --------   --------   ----
write     644.53     215.02     0.271192    30720      3072.00    0.003890   2.98       0.393784   2.98       0   
remove    -          -          -           -          -          -          -          -          0.637833   0   
Max Write: 644.53 MiB/sec (675.84 MB/sec)

Summary of all tests:
Operation   Max(MiB)   Min(MiB)  Mean(MiB)     StdDev   Max(OPs)   Min(OPs)  Mean(OPs)     StdDev    Mean(s) Stonewall(s) Stonewall(MiB) Test# #Tasks tPN reps fPP reord reordoff reordrand seed segcnt   blksiz    xsize aggs(MiB)   API RefNum
write         644.53     644.53     644.53       0.00     214.84     214.84     214.84       0.00    2.97892         NA            NA     0     64   8    1   1     0        1         0    0      1 31457280  3145728    1920.0 POSIX      0
Finished            : Tue Oct  6 20:48:20 2020
