@ PERROR @:  Error Opening /mnt/gekko/HACC_8nodes_64procs_1ionodes_4-Part00000053-of-00000064.data 
@ PERROR @:  Error Opening /mnt/gekko/HACC_8nodes_64procs_1ionodes_4-Part00000049-of-00000064.data 
@ PERROR @:  Error Opening /mnt/gekko/HACC_8nodes_64procs_1ionodes_4-Part00000050-of-00000064.data 
@ PERROR @:  Error Opening /mnt/gekko/HACC_8nodes_64procs_1ionodes_4-Part00000048-of-00000064.data 
@ PERROR @:  Error Opening /mnt/gekko/HACC_8nodes_64procs_1ionodes_4-Part00000055-of-00000064.data 
@ PERROR @:  Error Opening /mnt/gekko/HACC_8nodes_64procs_1ionodes_4-Part00000002-of-00000064.data 
@ PERROR @:  Error Opening /mnt/gekko/HACC_8nodes_64procs_1ionodes_4-Part00000039-of-00000064.data 
@ PERROR @:  Error Opening /mnt/gekko/HACC_8nodes_64procs_1ionodes_4-Part00000054-of-00000064.data 
@ PERROR @:  Error Opening /mnt/gekko/HACC_8nodes_64procs_1ionodes_4-Part00000046-of-00000064.data 
@ PERROR @:  Error Opening /mnt/gekko/HACC_8nodes_64procs_1ionodes_4-Part00000019-of-00000064.data 
@ PERROR @:  Error Opening /mnt/gekko/HACC_8nodes_64procs_1ionodes_4-Part00000020-of-00000064.data 
@ PERROR @:  Error Opening /mnt/gekko/HACC_8nodes_64procs_1ionodes_4-Part00000011-of-00000064.data 
@ PERROR @:  Error Opening /mnt/gekko/HACC_8nodes_64procs_1ionodes_4-Part00000057-of-00000064.data 
@ PERROR @:  Error Opening /mnt/gekko/HACC_8nodes_64procs_1ionodes_4-Part00000034-of-00000064.data 
@ PERROR @:  Error Opening /mnt/gekko/HACC_8nodes_64procs_1ionodes_4-Part00000042-of-00000064.data 
@ PERROR @:  Error Opening /mnt/gekko/HACC_8nodes_64procs_1ionodes_4-Part00000028-of-00000064.data 
@ PERROR @:  Error Opening /mnt/gekko/HACC_8nodes_64procs_1ionodes_4-Part00000036-of-00000064.data 
@ PERROR @:  Error Opening /mnt/gekko/HACC_8nodes_64procs_1ionodes_4-Part00000013-of-00000064.data 
@ PERROR @:  Error Opening /mnt/gekko/HACC_8nodes_64procs_1ionodes_4-Part00000047-of-00000064.data 
@ PERROR @:  Error Opening /mnt/gekko/HACC_8nodes_64procs_1ionodes_4-Part00000038-of-00000064.data 
@ PERROR @:  Error Opening /mnt/gekko/HACC_8nodes_64procs_1ionodes_4-Part00000008-of-00000064.data 
@ PERROR @:  Error Opening /mnt/gekko/HACC_8nodes_64procs_1ionodes_4-Part00000029-of-00000064.data 
@ PERROR @:  Error Opening /mnt/gekko/HACC_8nodes_64procs_1ionodes_4-Part00000006-of-00000064.data 
@ PERROR @:  Error Opening /mnt/gekko/HACC_8nodes_64procs_1ionodes_4-Part00000009-of-00000064.data 
@ PERROR @:  Error Opening /mnt/gekko/HACC_8nodes_64procs_1ionodes_4-Part00000027-of-00000064.data 
@ PERROR @:  Error Opening /mnt/gekko/HACC_8nodes_64procs_1ionodes_4-Part00000004-of-00000064.data 
@ PERROR @:  Error Opening /mnt/gekko/HACC_8nodes_64procs_1ionodes_4-Part00000000-of-00000064.data 
@ PERROR @:  Error Opening /mnt/gekko/HACC_8nodes_64procs_1ionodes_4-Part00000043-of-00000064.data 
@ PERROR @:  Error Opening /mnt/gekko/HACC_8nodes_64procs_1ionodes_4-Part00000060-of-00000064.data 
@ PERROR @:  Error Opening /mnt/gekko/HACC_8nodes_64procs_1ionodes_4-Part00000037-of-00000064.data 
@ PERROR @:  Error Opening /mnt/gekko/HACC_8nodes_64procs_1ionodes_4-Part00000024-of-00000064.data 
@ PERROR @:  Error Opening /mnt/gekko/HACC_8nodes_64procs_1ionodes_4-Part00000021-of-00000064.data 
@ PERROR @:  Error Opening /mnt/gekko/HACC_8nodes_64procs_1ionodes_4-Part00000059-of-00000064.data 
@ PERROR @:  Error Opening /mnt/gekko/HACC_8nodes_64procs_1ionodes_4-Part00000003-of-00000064.data 
@ PERROR @:  Error Opening /mnt/gekko/HACC_8nodes_64procs_1ionodes_4-Part00000007-of-00000064.data 
@ PERROR @:  Error Opening /mnt/gekko/HACC_8nodes_64procs_1ionodes_4-Part00000032-of-00000064.data 
@ PERROR @:  Error Opening /mnt/gekko/HACC_8nodes_64procs_1ionodes_4-Part00000044-of-00000064.data 
@ PERROR @:  Error Opening /mnt/gekko/HACC_8nodes_64procs_1ionodes_4-Part00000014-of-00000064.data 
@ PERROR @:  Error Opening /mnt/gekko/HACC_8nodes_64procs_1ionodes_4-Part00000030-of-00000064.data 
@ PERROR @:  Error Opening /mnt/gekko/HACC_8nodes_64procs_1ionodes_4-Part00000061-of-00000064.data 
@ PERROR @:  Error Opening /mnt/gekko/HACC_8nodes_64procs_1ionodes_4-Part00000001-of-00000064.data 
@ PERROR @:  Error Opening /mnt/gekko/HACC_8nodes_64procs_1ionodes_4-Part00000005-of-00000064.data 
@ PERROR @:  Error Opening /mnt/gekko/HACC_8nodes_64procs_1ionodes_4-Part00000033-of-00000064.data 
@ PERROR @:  Error Opening /mnt/gekko/HACC_8nodes_64procs_1ionodes_4-Part00000045-of-00000064.data 
@ PERROR @:  Error Opening /mnt/gekko/HACC_8nodes_64procs_1ionodes_4-Part00000022-of-00000064.data 
@ PERROR @:  Error Opening /mnt/gekko/HACC_8nodes_64procs_1ionodes_4-Part00000015-of-00000064.data 
@ PERROR @:  Error Opening /mnt/gekko/HACC_8nodes_64procs_1ionodes_4-Part00000031-of-00000064.data 
@ PERROR @:  Error Opening /mnt/gekko/HACC_8nodes_64procs_1ionodes_4-Part00000035-of-00000064.data 
@ PERROR @:  Error Opening /mnt/gekko/HACC_8nodes_64procs_1ionodes_4-Part00000041-of-00000064.data 
@ PERROR @:  Error Opening /mnt/gekko/HACC_8nodes_64procs_1ionodes_4-Part00000051-of-00000064.data 
@ PERROR @:  Error Opening /mnt/gekko/HACC_8nodes_64procs_1ionodes_4-Part00000058-of-00000064.data 
@ PERROR @:  Error Opening /mnt/gekko/HACC_8nodes_64procs_1ionodes_4-Part00000016-of-00000064.data 
@ PERROR @:  Error Opening /mnt/gekko/HACC_8nodes_64procs_1ionodes_4-Part00000026-of-00000064.data 
@ PERROR @:  Error Opening /mnt/gekko/HACC_8nodes_64procs_1ionodes_4-Part00000040-of-00000064.data 
@ PERROR @:  Error Opening /mnt/gekko/HACC_8nodes_64procs_1ionodes_4-Part00000012-of-00000064.data 
@ PERROR @:  Error Opening /mnt/gekko/HACC_8nodes_64procs_1ionodes_4-Part00000056-of-00000064.data 
@ PERROR @:  Error Opening /mnt/gekko/HACC_8nodes_64procs_1ionodes_4-Part00000010-of-00000064.data 
@ PERROR @:  Error Opening /mnt/gekko/HACC_8nodes_64procs_1ionodes_4-Part00000017-of-00000064.data 
@ PERROR @:  Error Opening /mnt/gekko/HACC_8nodes_64procs_1ionodes_4-Part00000052-of-00000064.data 
@ PERROR @:  Error Opening /mnt/gekko/HACC_8nodes_64procs_1ionodes_4-Part00000062-of-00000064.data 
@ PERROR @:  Error Opening /mnt/gekko/HACC_8nodes_64procs_1ionodes_4-Part00000025-of-00000064.data 
@ PERROR @:  Error Opening /mnt/gekko/HACC_8nodes_64procs_1ionodes_4-Part00000023-of-00000064.data 
@ PERROR @:  Error Opening /mnt/gekko/HACC_8nodes_64procs_1ionodes_4-Part00000063-of-00000064.data 
@ PERROR @:  Error Opening /mnt/gekko/HACC_8nodes_64procs_1ionodes_4-Part00000018-of-00000064.data 
-------- Aggregate Performance --------
 WRITE Checkpoint Perf: 608.536 BW[MB/s] 1853812736 Bytes 2.90522 MaxTime[sec] 
