IOR-3.3.0+dev: MPI Coordinated Test of Parallel I/O
Began               : Fri Oct  9 00:08:47 2020
Command line        : ior -a POSIX -b 134217728 -t 4096 -s 1 -d 10 -i 8 -m -F -o /mnt/gekko/IOR-B_24nodes_24procs_8ionodes_1 -w
Machine             : Linux gros-106
TestID              : 0
StartTime           : Fri Oct  9 00:08:47 2020
Path                : /mnt/gekko
FS                  : 8.6 TiB   Used FS: 5.0%   Inodes: 0.0 Mi   Used Inodes: -nan%

Options: 
api                 : POSIX
apiVersion          : 
test filename       : /mnt/gekko/IOR-B_24nodes_24procs_8ionodes_1
access              : file-per-process
type                : independent
segments            : 1
ordering in a file  : sequential
ordering inter file : no tasks offsets
nodes               : 24
tasks               : 24
clients per node    : 1
repetitions         : 8
xfersize            : 4096 bytes
blocksize           : 128 MiB
aggregate filesize  : 3 GiB

Results: 

access    bw(MiB/s)  IOPS       Latency(s)  block(KiB) xfer(KiB)  open(s)    wr/rd(s)   close(s)   total(s)   iter
------    ---------  ----       ----------  ---------- ---------  --------   --------   --------   --------   ----
write     194.72     49853      0.000462    131072     4.00       0.006160   15.77      2.63       15.78      0   
remove    -          -          -           -          -          -          -          -          0.064192   0   
write     196.29     50252      0.000457    131072     4.00       0.001131   15.65      2.63       15.65      1   
remove    -          -          -           -          -          -          -          -          0.064659   1   
write     198.63     50852      0.000457    131072     4.00       0.002259   15.47      2.40       15.47      2   
remove    -          -          -           -          -          -          -          -          0.096057   2   
write     201.62     51617      0.000459    131072     4.00       0.001338   15.24      2.21       15.24      3   
remove    -          -          -           -          -          -          -          -          0.060738   3   
write     201.09     51483      0.000450    131072     4.00       0.001201   15.28      2.48       15.28      4   
remove    -          -          -           -          -          -          -          -          0.072550   4   
write     199.38     51044      0.000456    131072     4.00       0.001166   15.41      2.29       15.41      5   
remove    -          -          -           -          -          -          -          -          0.062475   5   
write     194.47     49787      0.000459    131072     4.00       0.001297   15.80      2.68       15.80      6   
remove    -          -          -           -          -          -          -          -          0.056259   6   
write     200.50     51330      0.000457    131072     4.00       0.001111   15.32      2.32       15.32      7   
remove    -          -          -           -          -          -          -          -          0.060695   7   
Max Write: 201.62 MiB/sec (211.41 MB/sec)

Summary of all tests:
Operation   Max(MiB)   Min(MiB)  Mean(MiB)     StdDev   Max(OPs)   Min(OPs)  Mean(OPs)     StdDev    Mean(s) Stonewall(s) Stonewall(MiB) Test# #Tasks tPN reps fPP reord reordoff reordrand seed segcnt   blksiz    xsize aggs(MiB)   API RefNum
write         201.62     194.47     198.34       2.66   51613.92   49784.80   50774.56     679.82   15.49149         NA            NA     0     24   1    8   1     0        1         0    0      1 134217728     4096    3072.0 POSIX      0
Finished            : Fri Oct  9 00:12:12 2020
