IOR-3.3.0+dev: MPI Coordinated Test of Parallel I/O
Began               : Fri Oct  9 00:35:23 2020
Command line        : ior -a POSIX -b 134217728 -t 4096 -s 1 -d 10 -i 8 -m -F -o /mnt/gekko/IOR-B_24nodes_24procs_4ionodes_4 -w
Machine             : Linux gros-102
TestID              : 0
StartTime           : Fri Oct  9 00:35:23 2020
Path                : /mnt/gekko
FS                  : 4.3 TiB   Used FS: 5.0%   Inodes: 0.0 Mi   Used Inodes: -nan%

Options: 
api                 : POSIX
apiVersion          : 
test filename       : /mnt/gekko/IOR-B_24nodes_24procs_4ionodes_4
access              : file-per-process
type                : independent
segments            : 1
ordering in a file  : sequential
ordering inter file : no tasks offsets
nodes               : 24
tasks               : 24
clients per node    : 1
repetitions         : 8
xfersize            : 4096 bytes
blocksize           : 128 MiB
aggregate filesize  : 3 GiB

Results: 

access    bw(MiB/s)  IOPS       Latency(s)  block(KiB) xfer(KiB)  open(s)    wr/rd(s)   close(s)   total(s)   iter
------    ---------  ----       ----------  ---------- ---------  --------   --------   --------   --------   ----
write     182.19     46644      0.000506    131072     4.00       0.005927   16.86      1.46       16.86      0   
remove    -          -          -           -          -          -          -          -          0.069043   0   
write     186.72     47802      0.000502    131072     4.00       0.001071   16.45      0.883431   16.45      1   
remove    -          -          -           -          -          -          -          -          0.180637   1   
write     181.31     46416      0.000491    131072     4.00       0.001078   16.94      1.59       16.94      2   
remove    -          -          -           -          -          -          -          -          0.064822   2   
write     178.06     45586      0.000495    131072     4.00       0.001095   17.25      1.56       17.25      3   
remove    -          -          -           -          -          -          -          -          0.056267   3   
write     185.43     47471      0.000503    131072     4.00       0.000988   16.57      1.11       16.57      4   
remove    -          -          -           -          -          -          -          -          0.097416   4   
write     182.81     46802      0.000497    131072     4.00       0.001110   16.80      1.23       16.80      5   
remove    -          -          -           -          -          -          -          -          0.073416   5   
write     183.41     46956      0.000490    131072     4.00       0.000994   16.75      1.40       16.75      6   
remove    -          -          -           -          -          -          -          -          0.068166   6   
write     181.73     46525      0.000485    131072     4.00       0.001069   16.90      1.51       16.90      7   
remove    -          -          -           -          -          -          -          -          0.071026   7   
Max Write: 186.72 MiB/sec (195.79 MB/sec)

Summary of all tests:
Operation   Max(MiB)   Min(MiB)  Mean(MiB)     StdDev   Max(OPs)   Min(OPs)  Mean(OPs)     StdDev    Mean(s) Stonewall(s) Stonewall(MiB) Test# #Tasks tPN reps fPP reord reordoff reordrand seed segcnt   blksiz    xsize aggs(MiB)   API RefNum
write         186.72     178.06     182.71       2.47   47800.75   45583.81   46773.01     632.22   16.81688         NA            NA     0     24   1    8   1     0        1         0    0      1 134217728     4096    3072.0 POSIX      0
Finished            : Fri Oct  9 00:38:58 2020
