IOR-3.3.0+dev: MPI Coordinated Test of Parallel I/O
Began               : Mon Oct 12 22:16:23 2020
Command line        : ior -a POSIX -b 128m -t 4k -s 1 -F -w -o /mnt/lustre/IOR-B_24nodes_24procs_0ionodes_2
Machine             : Linux gros-1
TestID              : 0
StartTime           : Mon Oct 12 22:16:23 2020
Path                : /mnt/lustre
FS                  : 1.1 TiB   Used FS: 0.0%   Inodes: 16.4 Mi   Used Inodes: 0.0%

Options: 
api                 : POSIX
apiVersion          : 
test filename       : /mnt/lustre/IOR-B_24nodes_24procs_0ionodes_2
access              : file-per-process
type                : independent
segments            : 1
ordering in a file  : sequential
ordering inter file : no tasks offsets
nodes               : 24
tasks               : 24
clients per node    : 1
repetitions         : 1
xfersize            : 4096 bytes
blocksize           : 128 MiB
aggregate filesize  : 3 GiB

Results: 

access    bw(MiB/s)  IOPS       Latency(s)  block(KiB) xfer(KiB)  open(s)    wr/rd(s)   close(s)   total(s)   iter
------    ---------  ----       ----------  ---------- ---------  --------   --------   --------   --------   ----
write     282.88     72427      0.000007    131072     4.00       0.001581   10.86      10.63      10.86      0   
remove    -          -          -           -          -          -          -          -          3.37       0   
Max Write: 282.88 MiB/sec (296.62 MB/sec)

Summary of all tests:
Operation   Max(MiB)   Min(MiB)  Mean(MiB)     StdDev   Max(OPs)   Min(OPs)  Mean(OPs)     StdDev    Mean(s) Stonewall(s) Stonewall(MiB) Test# #Tasks tPN reps fPP reord reordoff reordrand seed segcnt   blksiz    xsize aggs(MiB)   API RefNum
write         282.88     282.88     282.88       0.00   72416.80   72416.80   72416.80       0.00   10.85980         NA            NA     0     24   1    1   1     0        1         0    0      1 134217728     4096    3072.0 POSIX      0
Finished            : Mon Oct 12 22:16:37 2020
