IOR-3.3.0+dev: MPI Coordinated Test of Parallel I/O
Began               : Mon Oct 12 23:04:27 2020
Command line        : ior -a POSIX -b 128m -t 4k -s 1 -F -w -o /mnt/gekko/IOR-B_24nodes_24procs_4ionodes_1
Machine             : Linux gros-102
TestID              : 0
StartTime           : Mon Oct 12 23:04:27 2020
Path                : /mnt/gekko
FS                  : 4.3 TiB   Used FS: 5.0%   Inodes: 0.0 Mi   Used Inodes: -nan%

Options: 
api                 : POSIX
apiVersion          : 
test filename       : /mnt/gekko/IOR-B_24nodes_24procs_4ionodes_1
access              : file-per-process
type                : independent
segments            : 1
ordering in a file  : sequential
ordering inter file : no tasks offsets
nodes               : 24
tasks               : 24
clients per node    : 1
repetitions         : 1
xfersize            : 4096 bytes
blocksize           : 128 MiB
aggregate filesize  : 3 GiB

Results: 

access    bw(MiB/s)  IOPS       Latency(s)  block(KiB) xfer(KiB)  open(s)    wr/rd(s)   close(s)   total(s)   iter
------    ---------  ----       ----------  ---------- ---------  --------   --------   --------   --------   ----
write     181.22     46398      0.000496    131072     4.00       0.006588   16.95      2.16       16.95      0   
remove    -          -          -           -          -          -          -          -          0.086454   0   
Max Write: 181.22 MiB/sec (190.02 MB/sec)

Summary of all tests:
Operation   Max(MiB)   Min(MiB)  Mean(MiB)     StdDev   Max(OPs)   Min(OPs)  Mean(OPs)     StdDev    Mean(s) Stonewall(s) Stonewall(MiB) Test# #Tasks tPN reps fPP reord reordoff reordrand seed segcnt   blksiz    xsize aggs(MiB)   API RefNum
write         181.22     181.22     181.22       0.00   46392.49   46392.49   46392.49       0.00   16.95171         NA            NA     0     24   1    1   1     0        1         0    0      1 134217728     4096    3072.0 POSIX      0
Finished            : Mon Oct 12 23:04:44 2020
