IOR-3.3.0+dev: MPI Coordinated Test of Parallel I/O
Began               : Thu Oct  8 22:10:45 2020
Command line        : ior -a POSIX -b 524288 -t 524288 -s 256 -d 10 -i 8 -m -o /mnt/lustre/IOR-A_24nodes_24procs_0ionodes_1 -w
Machine             : Linux gros-1
TestID              : 0
StartTime           : Thu Oct  8 22:10:45 2020
Path                : /mnt/lustre
FS                  : 1.1 TiB   Used FS: 0.0%   Inodes: 16.4 Mi   Used Inodes: 0.0%

Options: 
api                 : POSIX
apiVersion          : 
test filename       : /mnt/lustre/IOR-A_24nodes_24procs_0ionodes_1
access              : single-shared-file
type                : independent
segments            : 256
ordering in a file  : sequential
ordering inter file : no tasks offsets
nodes               : 24
tasks               : 24
clients per node    : 1
repetitions         : 8
xfersize            : 524288 bytes
blocksize           : 524288 bytes
aggregate filesize  : 3 GiB

Results: 

access    bw(MiB/s)  IOPS       Latency(s)  block(KiB) xfer(KiB)  open(s)    wr/rd(s)   close(s)   total(s)   iter
------    ---------  ----       ----------  ---------- ---------  --------   --------   --------   --------   ----
write     208.39     416.82     13.34       512.00     512.00     0.005650   14.74      13.78      14.74      0   
remove    -          -          -           -          -          -          -          -          0.003680   0   
write     214.03     428.10     0.333585    512.00     512.00     0.004059   14.35      14.02      14.35      1   
remove    -          -          -           -          -          -          -          -          0.002554   1   
write     215.05     430.13     11.61       512.00     512.00     0.004057   14.28      14.22      14.29      2   
remove    -          -          -           -          -          -          -          -          0.003220   2   
write     210.48     421.00     11.88       512.00     512.00     0.004490   14.59      14.48      14.60      3   
remove    -          -          -           -          -          -          -          -          0.004637   3   
write     224.24     448.54     12.24       512.00     512.00     0.005411   13.70      13.26      13.70      4   
remove    -          -          -           -          -          -          -          -          0.004713   4   
write     221.65     443.35     10.98       512.00     512.00     0.004388   13.86      13.68      13.86      5   
remove    -          -          -           -          -          -          -          -          0.003893   5   
write     217.23     434.51     11.96       512.00     512.00     0.004104   14.14      14.00      14.14      6   
remove    -          -          -           -          -          -          -          -          0.003542   6   
write     220.46     440.96     13.27       512.00     512.00     0.003843   13.93      13.53      13.93      7   
remove    -          -          -           -          -          -          -          -          0.004743   7   
Max Write: 224.24 MiB/sec (235.13 MB/sec)

Summary of all tests:
Operation   Max(MiB)   Min(MiB)  Mean(MiB)     StdDev   Max(OPs)   Min(OPs)  Mean(OPs)     StdDev    Mean(s) Stonewall(s) Stonewall(MiB) Test# #Tasks tPN reps fPP reord reordoff reordrand seed segcnt   blksiz    xsize aggs(MiB)   API RefNum
write         224.24     208.39     216.44       5.16     448.48     416.78     432.88      10.32   14.20137         NA            NA     0     24   1    8   0     0        1         0    0    256   524288   524288    3072.0 POSIX      0
Finished            : Thu Oct  8 22:13:59 2020
