IOR-3.3.0+dev: MPI Coordinated Test of Parallel I/O
Began               : Thu Oct  8 22:43:16 2020
Command line        : ior -a POSIX -b 524288 -t 524288 -s 256 -d 10 -i 8 -m -o /mnt/gekko/IOR-A_24nodes_24procs_4ionodes_2 -w
Machine             : Linux gros-102
TestID              : 0
StartTime           : Thu Oct  8 22:43:16 2020
Path                : /mnt/gekko
FS                  : 4.3 TiB   Used FS: 5.0%   Inodes: 0.0 Mi   Used Inodes: -nan%

Options: 
api                 : POSIX
apiVersion          : 
test filename       : /mnt/gekko/IOR-A_24nodes_24procs_4ionodes_2
access              : single-shared-file
type                : independent
segments            : 256
ordering in a file  : sequential
ordering inter file : no tasks offsets
nodes               : 24
tasks               : 24
clients per node    : 1
repetitions         : 8
xfersize            : 524288 bytes
blocksize           : 524288 bytes
aggregate filesize  : 3 GiB

Results: 

access    bw(MiB/s)  IOPS       Latency(s)  block(KiB) xfer(KiB)  open(s)    wr/rd(s)   close(s)   total(s)   iter
------    ---------  ----       ----------  ---------- ---------  --------   --------   --------   --------   ----
write     281.44     563.08     7.61        512.00     512.00     0.008097   10.91      9.64       10.92      0   
remove    -          -          -           -          -          -          -          -          0.028661   0   
write     264.71     529.53     11.60       512.00     512.00     0.003225   11.60      11.06      11.61      1   
remove    -          -          -           -          -          -          -          -          0.050330   1   
write     279.71     559.45     9.00        512.00     512.00     0.002901   10.98      10.61      10.98      2   
remove    -          -          -           -          -          -          -          -          0.075582   2   
write     275.31     550.67     11.16       512.00     512.00     0.001762   11.16      10.56      11.16      3   
remove    -          -          -           -          -          -          -          -          0.039163   3   
write     260.01     520.07     8.09        512.00     512.00     0.001868   11.81      11.20      11.81      4   
remove    -          -          -           -          -          -          -          -          0.028208   4   
write     245.46     491.00     10.72       512.00     512.00     0.004021   12.51      11.70      12.52      5   
remove    -          -          -           -          -          -          -          -          0.073208   5   
write     288.91     577.86     1.87        512.00     512.00     0.001427   10.63      10.27      10.63      6   
remove    -          -          -           -          -          -          -          -          0.045659   6   
write     262.53     525.09     5.43        512.00     512.00     0.001268   11.70      11.11      11.70      7   
remove    -          -          -           -          -          -          -          -          0.098908   7   
Max Write: 288.91 MiB/sec (302.94 MB/sec)

Summary of all tests:
Operation   Max(MiB)   Min(MiB)  Mean(MiB)     StdDev   Max(OPs)   Min(OPs)  Mean(OPs)     StdDev    Mean(s) Stonewall(s) Stonewall(MiB) Test# #Tasks tPN reps fPP reord reordoff reordrand seed segcnt   blksiz    xsize aggs(MiB)   API RefNum
write         288.91     245.46     269.76      13.21     577.81     490.92     539.52      26.42   11.41586         NA            NA     0     24   1    8   0     0        1         0    0    256   524288   524288    3072.0 POSIX      0
Finished            : Thu Oct  8 22:46:08 2020
