IOR-3.3.0+dev: MPI Coordinated Test of Parallel I/O
Began               : Thu Oct  8 22:47:23 2020
Command line        : ior -a POSIX -b 524288 -t 524288 -s 256 -d 10 -i 8 -m -o /mnt/gekko/IOR-A_24nodes_24procs_8ionodes_4 -w
Machine             : Linux gros-106
TestID              : 0
StartTime           : Thu Oct  8 22:47:23 2020
Path                : /mnt/gekko
FS                  : 8.6 TiB   Used FS: 5.0%   Inodes: 0.0 Mi   Used Inodes: -nan%

Options: 
api                 : POSIX
apiVersion          : 
test filename       : /mnt/gekko/IOR-A_24nodes_24procs_8ionodes_4
access              : single-shared-file
type                : independent
segments            : 256
ordering in a file  : sequential
ordering inter file : no tasks offsets
nodes               : 24
tasks               : 24
clients per node    : 1
repetitions         : 8
xfersize            : 524288 bytes
blocksize           : 524288 bytes
aggregate filesize  : 3 GiB

Results: 

access    bw(MiB/s)  IOPS       Latency(s)  block(KiB) xfer(KiB)  open(s)    wr/rd(s)   close(s)   total(s)   iter
------    ---------  ----       ----------  ---------- ---------  --------   --------   --------   --------   ----
write     243.08     486.31     12.63       512.00     512.00     0.007561   12.63      11.86      12.64      0   
remove    -          -          -           -          -          -          -          -          0.024076   0   
write     237.78     475.66     10.67       512.00     512.00     0.004275   12.92      12.39      12.92      1   
remove    -          -          -           -          -          -          -          -          0.016932   1   
write     240.63     481.38     0.560178    512.00     512.00     0.004316   12.76      12.21      12.77      2   
remove    -          -          -           -          -          -          -          -          0.014980   2   
write     235.08     470.25     0.733016    512.00     512.00     0.003238   13.07      12.48      13.07      3   
remove    -          -          -           -          -          -          -          -          0.015016   3   
write     227.06     454.21     12.32       512.00     512.00     0.003838   13.53      13.04      13.53      4   
remove    -          -          -           -          -          -          -          -          0.021239   4   
write     236.97     474.01     0.329426    512.00     512.00     0.003130   12.96      12.63      12.96      5   
remove    -          -          -           -          -          -          -          -          0.014558   5   
write     221.84     443.70     10.26       512.00     512.00     0.001317   13.85      13.30      13.85      6   
remove    -          -          -           -          -          -          -          -          0.027202   6   
write     242.91     485.85     12.04       512.00     512.00     0.001471   12.65      12.07      12.65      7   
remove    -          -          -           -          -          -          -          -          0.016638   7   
Max Write: 243.08 MiB/sec (254.89 MB/sec)

Summary of all tests:
Operation   Max(MiB)   Min(MiB)  Mean(MiB)     StdDev   Max(OPs)   Min(OPs)  Mean(OPs)     StdDev    Mean(s) Stonewall(s) Stonewall(MiB) Test# #Tasks tPN reps fPP reord reordoff reordrand seed segcnt   blksiz    xsize aggs(MiB)   API RefNum
write         243.08     221.84     235.67       7.11     486.16     443.67     471.34      14.21   13.04738         NA            NA     0     24   1    8   0     0        1         0    0    256   524288   524288    3072.0 POSIX      0
Finished            : Thu Oct  8 22:50:28 2020
