IOR-3.3.0+dev: MPI Coordinated Test of Parallel I/O
Began               : Thu Oct  8 22:35:38 2020
Command line        : ior -a POSIX -b 524288 -t 524288 -s 256 -d 10 -i 8 -m -o /mnt/gekko/IOR-A_24nodes_24procs_8ionodes_1 -w
Machine             : Linux gros-106
TestID              : 0
StartTime           : Thu Oct  8 22:35:38 2020
Path                : /mnt/gekko
FS                  : 8.6 TiB   Used FS: 5.0%   Inodes: 0.0 Mi   Used Inodes: -nan%

Options: 
api                 : POSIX
apiVersion          : 
test filename       : /mnt/gekko/IOR-A_24nodes_24procs_8ionodes_1
access              : single-shared-file
type                : independent
segments            : 256
ordering in a file  : sequential
ordering inter file : no tasks offsets
nodes               : 24
tasks               : 24
clients per node    : 1
repetitions         : 8
xfersize            : 524288 bytes
blocksize           : 524288 bytes
aggregate filesize  : 3 GiB

Results: 

access    bw(MiB/s)  IOPS       Latency(s)  block(KiB) xfer(KiB)  open(s)    wr/rd(s)   close(s)   total(s)   iter
------    ---------  ----       ----------  ---------- ---------  --------   --------   --------   --------   ----
write     207.22     414.56     12.86       512.00     512.00     0.008380   14.82      13.86      14.82      0   
remove    -          -          -           -          -          -          -          -          0.020070   0   
write     216.80     433.69     12.27       512.00     512.00     0.003608   14.17      13.72      14.17      1   
remove    -          -          -           -          -          -          -          -          0.016836   1   
write     259.46     518.95     11.53       512.00     512.00     0.003019   11.84      11.28      11.84      2   
remove    -          -          -           -          -          -          -          -          0.017442   2   
write     252.26     504.56     9.78        512.00     512.00     0.001495   12.18      11.56      12.18      3   
remove    -          -          -           -          -          -          -          -          0.021357   3   
write     226.10     452.22     0.531498    512.00     512.00     0.001155   13.59      13.17      13.59      4   
remove    -          -          -           -          -          -          -          -          0.019733   4   
write     222.26     444.60     4.34        512.00     512.00     0.003290   13.82      13.35      13.82      5   
remove    -          -          -           -          -          -          -          -          0.021887   5   
write     234.45     468.94     9.84        512.00     512.00     0.001936   13.10      12.62      13.10      6   
remove    -          -          -           -          -          -          -          -          0.023256   6   
write     227.27     454.63     10.42       512.00     512.00     0.003277   13.51      13.08      13.52      7   
remove    -          -          -           -          -          -          -          -          0.020967   7   
Max Write: 259.46 MiB/sec (272.06 MB/sec)

Summary of all tests:
Operation   Max(MiB)   Min(MiB)  Mean(MiB)     StdDev   Max(OPs)   Min(OPs)  Mean(OPs)     StdDev    Mean(s) Stonewall(s) Stonewall(MiB) Test# #Tasks tPN reps fPP reord reordoff reordrand seed segcnt   blksiz    xsize aggs(MiB)   API RefNum
write         259.46     207.22     230.73      16.41     518.92     414.44     461.45      32.82   13.38016         NA            NA     0     24   1    8   0     0        1         0    0    256   524288   524288    3072.0 POSIX      0
Finished            : Thu Oct  8 22:38:45 2020
