IOR-3.3.0+dev: MPI Coordinated Test of Parallel I/O
Began               : Mon Oct 12 22:11:04 2020
Command line        : ior -a POSIX -b 524288 -t 524288 -s 256 -w -o /mnt/gekko/IOR-A_24nodes_24procs_2ionodes_2
Machine             : Linux gros-100
TestID              : 0
StartTime           : Mon Oct 12 22:11:04 2020
Path                : /mnt/gekko
FS                  : 2.1 TiB   Used FS: 5.0%   Inodes: 0.0 Mi   Used Inodes: -nan%

Options: 
api                 : POSIX
apiVersion          : 
test filename       : /mnt/gekko/IOR-A_24nodes_24procs_2ionodes_2
access              : single-shared-file
type                : independent
segments            : 256
ordering in a file  : sequential
ordering inter file : no tasks offsets
nodes               : 24
tasks               : 24
clients per node    : 1
repetitions         : 1
xfersize            : 524288 bytes
blocksize           : 524288 bytes
aggregate filesize  : 3 GiB

Results: 

access    bw(MiB/s)  IOPS       Latency(s)  block(KiB) xfer(KiB)  open(s)    wr/rd(s)   close(s)   total(s)   iter
------    ---------  ----       ----------  ---------- ---------  --------   --------   --------   --------   ----
write     228.51     457.30     11.81       512.00     512.00     0.011913   13.44      10.20      13.44      0   
remove    -          -          -           -          -          -          -          -          0.197894   0   
Max Write: 228.51 MiB/sec (239.61 MB/sec)

Summary of all tests:
Operation   Max(MiB)   Min(MiB)  Mean(MiB)     StdDev   Max(OPs)   Min(OPs)  Mean(OPs)     StdDev    Mean(s) Stonewall(s) Stonewall(MiB) Test# #Tasks tPN reps fPP reord reordoff reordrand seed segcnt   blksiz    xsize aggs(MiB)   API RefNum
write         228.51     228.51     228.51       0.00     457.03     457.03     457.03       0.00   13.44344         NA            NA     0     24   1    1   0     0        1         0    0    256   524288   524288    3072.0 POSIX      0
Finished            : Mon Oct 12 22:11:18 2020
