IOR-3.3.0+dev: MPI Coordinated Test of Parallel I/O
Began               : Mon Oct 12 22:40:47 2020
Command line        : ior -a POSIX -b 524288 -t 524288 -s 256 -w -o /mnt/gekko/IOR-A_24nodes_24procs_2ionodes_1
Machine             : Linux gros-100
TestID              : 0
StartTime           : Mon Oct 12 22:40:47 2020
Path                : /mnt/gekko
FS                  : 2.1 TiB   Used FS: 5.0%   Inodes: 0.0 Mi   Used Inodes: -nan%

Options: 
api                 : POSIX
apiVersion          : 
test filename       : /mnt/gekko/IOR-A_24nodes_24procs_2ionodes_1
access              : single-shared-file
type                : independent
segments            : 256
ordering in a file  : sequential
ordering inter file : no tasks offsets
nodes               : 24
tasks               : 24
clients per node    : 1
repetitions         : 1
xfersize            : 524288 bytes
blocksize           : 524288 bytes
aggregate filesize  : 3 GiB

Results: 

access    bw(MiB/s)  IOPS       Latency(s)  block(KiB) xfer(KiB)  open(s)    wr/rd(s)   close(s)   total(s)   iter
------    ---------  ----       ----------  ---------- ---------  --------   --------   --------   --------   ----
write     267.38     534.95     11.49       512.00     512.00     0.007381   11.49      8.31       11.49      0   
remove    -          -          -           -          -          -          -          -          0.128861   0   
Max Write: 267.38 MiB/sec (280.37 MB/sec)

Summary of all tests:
Operation   Max(MiB)   Min(MiB)  Mean(MiB)     StdDev   Max(OPs)   Min(OPs)  Mean(OPs)     StdDev    Mean(s) Stonewall(s) Stonewall(MiB) Test# #Tasks tPN reps fPP reord reordoff reordrand seed segcnt   blksiz    xsize aggs(MiB)   API RefNum
write         267.38     267.38     267.38       0.00     534.76     534.76     534.76       0.00   11.48916         NA            NA     0     24   1    1   0     0        1         0    0    256   524288   524288    3072.0 POSIX      0
Finished            : Mon Oct 12 22:40:59 2020
