IOR-3.3.0+dev: MPI Coordinated Test of Parallel I/O
Began               : Mon Oct 12 22:24:43 2020
Command line        : ior -a POSIX -b 524288 -t 524288 -s 256 -w -o /mnt/lustre/IOR-A_24nodes_24procs_0ionodes_0
Machine             : Linux gros-1
TestID              : 0
StartTime           : Mon Oct 12 22:24:43 2020
Path                : /mnt/lustre
FS                  : 1.1 TiB   Used FS: 0.0%   Inodes: 16.4 Mi   Used Inodes: 0.0%

Options: 
api                 : POSIX
apiVersion          : 
test filename       : /mnt/lustre/IOR-A_24nodes_24procs_0ionodes_0
access              : single-shared-file
type                : independent
segments            : 256
ordering in a file  : sequential
ordering inter file : no tasks offsets
nodes               : 24
tasks               : 24
clients per node    : 1
repetitions         : 1
xfersize            : 524288 bytes
blocksize           : 524288 bytes
aggregate filesize  : 3 GiB

Results: 

access    bw(MiB/s)  IOPS       Latency(s)  block(KiB) xfer(KiB)  open(s)    wr/rd(s)   close(s)   total(s)   iter
------    ---------  ----       ----------  ---------- ---------  --------   --------   --------   --------   ----
write     187.62     375.26     0.106449    512.00     512.00     0.003577   16.37      16.27      16.37      0   
remove    -          -          -           -          -          -          -          -          0.002509   0   
Max Write: 187.62 MiB/sec (196.73 MB/sec)

Summary of all tests:
Operation   Max(MiB)   Min(MiB)  Mean(MiB)     StdDev   Max(OPs)   Min(OPs)  Mean(OPs)     StdDev    Mean(s) Stonewall(s) Stonewall(MiB) Test# #Tasks tPN reps fPP reord reordoff reordrand seed segcnt   blksiz    xsize aggs(MiB)   API RefNum
write         187.62     187.62     187.62       0.00     375.24     375.24     375.24       0.00   16.37366         NA            NA     0     24   1    1   0     0        1         0    0    256   524288   524288    3072.0 POSIX      0
Finished            : Mon Oct 12 22:25:00 2020
